signeddelay/signeddelay.sim/sim_1/behav/xsim/signed delay mul waveforms.vcd
$date
   Sun Sep 17 23:23:21 2023
$end
$version
  2019.2
$end
$timescale
  1ps
$end
$scope module mulsignd_tb $end
$var reg 8 ! a [7:0] $end
$var reg 8 " b [7:0] $end
$var wire 16 # s [15:0] $end
$upscope $end
$enddefinitions $end
#0
$dumpvars
b1 !
b11111111 "
bx #
$end
#1000
bx #
#6000
bx #
#8000
bx #
#10000
b10 !
b11111110 "
bx #
#12000
bx #
#14000
bx1 #
#15000
bx11 #
#16000
bx11 #
#17000
bx111 #
#18000
bx1111 #
#19000
bx01111 #
#20000
b11111110 !
b11111110 "
bx110111 #
#21000
bx1110111 #
#22000
bx11111011 #
#24000
bx011111100 #
#25000
bx0011111100 #
#26000
bx1101111100 #
#27000
bx01001111100 #
#28000
bx01110111100 #
#29000
bx100100111100 #
#30000
b111011100 #
#31000
b1111111010011100 #
#32000
b1011101100 #
#33000
b1101001100 #
#34000
b101110100 #
#35000
b1111111110100100 #
#36000
b1111111101000100 #
#37000
b1111111010000100 #
#38000
b1111110100000100 #
#39000
b1111111000000100 #
#40000
b1111100000000100 #
#41000
b1111110000000100 #
#42000
b1111000000000100 #
#43000
b1111100000000100 #
#44000
b1110000000000100 #
#45000
b1111000000000100 #
#46000
b1100000000000100 #
#47000
b1110000000000100 #
#48000
b1000000000000100 #
#49000
b1100000000000100 #
#50000
b100 #
#51000
b1000000000000100 #
#52000
b100 #
